%YAML 1.1
%TAG !u! tag:unity3d.com,2011:
--- !u!114 &11400000
MonoBehaviour:
  m_ObjectHideFlags: 0
  m_PrefabParentObject: {fileID: 0}
  m_PrefabInternal: {fileID: 0}
  m_GameObject: {fileID: 0}
  m_Enabled: 1
  m_EditorHideFlags: 0
  m_Script: {fileID: 11500000, guid: 4cad5be5b120ac1479ccba65aab6f0bb, type: 3}
  m_Name: Hunt1Dec1
  m_EditorClassIdentifier: 
  text: Jagen
  events:
  - {fileID: 11400000, guid: 549a32dabd5f5ba48a2472d57302158e, type: 2}
