%YAML 1.1
%TAG !u! tag:unity3d.com,2011:
--- !u!114 &11400000
MonoBehaviour:
  m_ObjectHideFlags: 0
  m_PrefabParentObject: {fileID: 0}
  m_PrefabInternal: {fileID: 0}
  m_GameObject: {fileID: 0}
  m_Enabled: 1
  m_EditorHideFlags: 0
  m_Script: {fileID: 11500000, guid: 8d5479797aae12d4996c183643c76652, type: 3}
  m_Name: FungalGlade
  m_EditorClassIdentifier: 
  displayText: "Der Wald verdichtet sich mal wieder zu einem schier undurchdringlichen
    Dickicht als pl\xF6tzlich zwischen dem \xFCberwucherten Boden lauter Pilze auftauchen.
    Ein paar davon scheinen essbar zu sein."
  titleText: Der Pilzwald
  flavourImage: {fileID: 21300000, guid: d930ee174eba9114d85cdbd61b9f0b30, type: 3}
  lifeTime: 0
  textBox: {fileID: 0}
  desicionTextBox: {fileID: 114042181899701978, guid: 88fc960d9e6e6404db1f3ebe84688227,
    type: 2}
  storyPart: 
  textPosition: 0
  types: 05000000
  desicions:
  - {fileID: 11400000, guid: f926fc2b45510d9428fa254b2f3509ba, type: 2}
  - {fileID: 11400000, guid: 021fb8a0fb2faa547a5a33d599ef1a93, type: 2}
  minGroupSize: 0
  oneTime: 0
  neededEntities: []
  setAP: 0
  daysToBuff: 0
  apToBuff: 0
  radius: 0
