%YAML 1.1
%TAG !u! tag:unity3d.com,2011:
--- !u!114 &11400000
MonoBehaviour:
  m_ObjectHideFlags: 0
  m_PrefabParentObject: {fileID: 0}
  m_PrefabInternal: {fileID: 0}
  m_GameObject: {fileID: 0}
  m_Enabled: 1
  m_EditorHideFlags: 0
  m_Script: {fileID: 11500000, guid: 8d5479797aae12d4996c183643c76652, type: 3}
  m_Name: Soldiers
  m_EditorClassIdentifier: 
  displayText: "Schon von weitem sichtbar n\xE4hert sich eine Gruppe Bewaffneter.
    \r\nBeim N\xE4herkommen ist klar ersichtlich, dass ihre Ausr\xFCstung nicht uniform
    ist und es sich hier wohl eher um Ortsans\xE4ssige handelt, als um ausgebildete
    Soldaten.\r\nNach der freundlichen Begr\xFCssung erkl\xE4ren sie, dass sie zur
    Zeit \xF6fter auf Patrouille gehen. Die W\xE4lder seien nicht sicher, und die
    Patruillien sind sind ebenso zur Verunsicherung etwaiger krimineller Banden gedacht,
    wie zur moralischen Unterst\xFCtzung der in dieser Gegend lebenden Menschen, erkl\xE4ren
    sie.\r\nSie wollen sich allerdings nicht zu lange aufhalten und gehen weiter,
    bevor viel Zeit verstrichen ist.\r"
  titleText: 
  flavourImage: {fileID: 0}
  lifeTime: 0
  textBox: {fileID: 0}
  desicionTextBox: {fileID: 0}
  storyPart: 
  textPosition: 1
  types: 02000000
  desicions: []
  minGroupSize: 0
  oneTime: 1
  neededEntities: []
  setAP: 0
  daysToBuff: 0
  apToBuff: 0
  radius: 0
